{
    "@class": "com.kony.gen.viz.model.component.KVizButton",
    "DNDConfig": null,
    "__parentReadjusting__": false,
    "_height_": {
        "type": "string",
        "value": "100%"
    },
    "_left_": {
        "type": "string",
        "value": "50%"
    },
    "_margin_": [
        6,
        6,
        6,
        6
    ],
    "_padding_": [
        0,
        0,
        0,
        0
    ],
    "_skin_": "s1dcdc2599f8411db746e3e61a66a6f7",
    "_text_": "Enable",
    "_top_": {
        "type": "string",
        "value": "0%"
    },
    "_width_": {
        "type": "string",
        "value": "50%"
    },
    "canUpdateUI": true,
    "containerweight": 100,
    "contentalignment": 5,
    "displaytext": true,
    "focusskin": "s5d51db295f54240ab5caf23cf85dbd7",
    "id": "btnEnable",
    "info": null,
    "isvisible": true,
    "kuid": "f30cf369bec64370baf0de088699f98f",
    "name": "kony.ui.Button",
    "parent": "flxButtons",
    "pf": "frmLogin",
    "wType": "Button",
    "zindex": 10
}