{
    "AS_Button_e215b04dbc3e4dde97a963207d8031ea": {
        "id": "AS_Button_e215b04dbc3e4dde97a963207d8031ea",
        "type": "ACTION_SEQUENCE",
        "params": [{
            "datatype": "collection",
            "name": "eventobject"
        }],
        "contextObj": {
            "name": "frmLogin",
            "type": "forms",
            "platform": "",
            "KUID": "e33d9ccbda614db791fb934202723703"
        },
        "language": "js",
        "actions": [{
            "id": "NAVIGATE_TO_FORM___a299ce4510f24b61bdf5d09f3b0f400a",
            "type": "NAVIGATE_TO_FORM",
            "formId": "frmDashboard",
            "formKUID": "d4fa4aae383045678a78abc538ff5eec",
            "mappings": {},
            "mappingsOrder": [],
            "parentId": "",
            "callbackType": null,
            "enableMappingEditor": true,
            "package": ""
        }]
    }
}