{
    "@class": "com.kony.gen.viz.model.component.KVizImage2",
    "DNDConfig": null,
    "__parentReadjusting__": false,
    "_base64_": null,
    "_bottom_": {
        "type": "string",
        "value": "12%"
    },
    "_height_": {
        "type": "ref",
        "value": "preferred"
    },
    "_left_": {
        "type": "string",
        "value": "6%"
    },
    "_margin_": [
        0,
        0,
        0,
        0
    ],
    "_padding_": [
        0,
        0,
        0,
        0
    ],
    "_skin_": "s1fcd3cdd8404e6c9dce4b72b5f38cac",
    "_src_": "ic_wallet.png",
    "_width_": {
        "type": "ref",
        "value": "preferred"
    },
    "canUpdateUI": true,
    "containerweight": 100,
    "context": {
        "channel": "mobile",
        "formID": "frmDashboard",
        "platform": "android",
        "templateType": "forms",
        "topLevelBox": null
    },
    "id": "CopyImage0f8ff789eedb445",
    "imagescalemode": 1,
    "info": null,
    "isvisible": true,
    "kuid": "c8d9a7ee3c3a46ddb6bc2beb959bfdd8",
    "name": "kony.ui.Image2",
    "parent": "flxCard3",
    "pf": "frmDashboard",
    "srcType": 1,
    "wType": "Image",
    "widgetalignment": 5,
    "zindex": 4
}