{
    "DNDConfig": null,
    "__parentReadjusting__": false,
    "_height_": {
        "type": "string",
        "value": "10dp"
    },
    "_left_": {
        "type": "string",
        "value": "19%"
    },
    "_margin_": [
        0,
        0,
        0,
        0
    ],
    "_orientation_": 6,
    "_padding_": [
        0,
        0,
        0,
        0
    ],
    "_percent_": true,
    "_skin_": "s3fe1898dedd49689519470abe45e6d9",
    "_top_": {
        "type": "string",
        "value": "87%"
    },
    "_width_": {
        "type": "string",
        "value": "10dp"
    },
    "allboxes": [],
    "autogrowmode": 0,
    "canUpdateUI": true,
    "children": [],
    "clipbounds": true,
    "containerweight": 100,
    "enablescrolling": true,
    "id": "dot2",
    "info": null,
    "isvisible": true,
    "kuid": "hf3f4c2af90f48c6bcd9056d8ceb2aa9",
    "layouttype": 2,
    "name": "kony.ui.FlexContainer",
    "parent": "flxBalance",
    "pf": "frmDashboard",
    "snapgridsize": 10,
    "snaptogrid": true,
    "wType": "FlexContainer",
    "widgetalignment": 1,
    "zindex": 1
}