{
    "DNDConfig": null,
    "__parentReadjusting__": false,
    "_height_": {
        "type": "string",
        "value": "47%"
    },
    "_left_": {
        "type": "string",
        "value": "37dp"
    },
    "_margin_": [
        0,
        0,
        0,
        0
    ],
    "_orientation_": 6,
    "_padding_": [
        0,
        0,
        0,
        0
    ],
    "_percent_": true,
    "_skin_": "sde36a70ce764c6b9051cd8998c617c6",
    "_top_": {
        "type": "string",
        "value": "30%"
    },
    "_width_": {
        "type": "string",
        "value": "80%"
    },
    "allboxes": [],
    "autogrowmode": 0,
    "canUpdateUI": true,
    "centerx": {
        "type": "string",
        "value": "50%"
    },
    "children": [
        "CopyLabel0ce0887eab57340",
        "CopyLabel091b2523e509941",
        "CopyLabel0a85fdaacc9de47",
        "CopyLabel0d22dcc4bba934a",
        "CopyImage0f8ff789eedb445",
        "CopyFlexContainer0b198604f24cd45",
        "CopyFlexContainer0f07b419b2be34b",
        "CopyImage0bcd8fa59a19e4a"
    ],
    "clipbounds": true,
    "containerweight": 100,
    "enablescrolling": true,
    "id": "flxCard3",
    "info": null,
    "isvisible": true,
    "kuid": "cb629e6368c64f8eb82d858a1ca32b89",
    "layouttype": 2,
    "name": "kony.ui.FlexContainer",
    "parent": "flxScrollCards",
    "pf": "frmDashboard",
    "snapgridsize": 10,
    "snaptogrid": true,
    "wType": "FlexContainer",
    "widgetalignment": 1,
    "zindex": 2
}