{
    "DNDConfig": null,
    "__parentReadjusting__": false,
    "_height_": {
        "type": "string",
        "value": "47%"
    },
    "_left_": {
        "type": "string",
        "value": "37dp"
    },
    "_margin_": [
        0,
        0,
        0,
        0
    ],
    "_orientation_": 6,
    "_padding_": [
        0,
        0,
        0,
        0
    ],
    "_percent_": true,
    "_skin_": "sde36a70ce764c6b9051cd8998c617c6",
    "_top_": {
        "type": "string",
        "value": "27%"
    },
    "_width_": {
        "type": "string",
        "value": "88%"
    },
    "allboxes": [],
    "autogrowmode": 0,
    "canUpdateUI": true,
    "centerx": {
        "type": "string",
        "value": "50%"
    },
    "children": [
        "CopyLabel0e4ed4ed1431d4b",
        "CopyLabel0df54f8d3162a46",
        "CopyLabel0eb1da0046d7d40",
        "CopyLabel020b2b3e04c7240",
        "FlexContainer0fa6cf1ea393644",
        "CopyFlexContainer03c49d877f66244",
        "Image044c10643ad5545",
        "CopyImage0edee0cb1f3204b"
    ],
    "clipbounds": true,
    "containerweight": 100,
    "enablescrolling": true,
    "id": "flxCard1",
    "info": null,
    "isvisible": true,
    "kuid": "a2115cce0acb4c8e9f0e4e456067c32f",
    "layouttype": 2,
    "name": "kony.ui.FlexContainer",
    "parent": "flxScrollCards",
    "pf": "frmDashboard",
    "snapgridsize": 10,
    "snaptogrid": true,
    "wType": "FlexContainer",
    "widgetalignment": 1,
    "zindex": 4
}